<?xml version="1.0" encoding="utf-8"?>
<!-- Generator: Adobe Illustrator 16.0.0, SVG Export Plug-In . SVG Version: 6.00 Build 0)  -->
<!DOCTYPE svg PUBLIC "-//W3C//DTD SVG 1.1//EN" "http://www.w3.org/Graphics/SVG/1.1/DTD/svg11.dtd">
<svg version="1.1" id="Layer_1" xmlns="http://www.w3.org/2000/svg" xmlns:xlink="http://www.w3.org/1999/xlink" x="0px" y="0px"
	 width="612px" height="792px" viewBox="0 0 612 792" enable-background="new 0 0 612 792" xml:space="preserve">
<g>
	<text transform="matrix(1 0 0 1 266.1465 388.23)"><tspan x="0" y="0" font-family="'GaramondPremrPro'" font-size="6.528">N</tspan><tspan x="5.033" y="1.088" font-family="'GaramondPremrPro'" font-size="4.352">35</tspan></text>
	<text transform="matrix(1 0 0 1 306.7441 388.23)"><tspan x="0" y="0" font-family="'GaramondPremrPro'" font-size="6.528">N</tspan><tspan x="5.033" y="1.088" font-family="'GaramondPremrPro'" font-size="4.352">15</tspan></text>
	<text transform="matrix(1 0 0 1 338.1387 388.23)"><tspan x="0" y="0" font-family="'GaramondPremrPro'" font-size="6.528">N</tspan><tspan x="5.033" y="1.088" font-family="'GaramondPremrPro'" font-size="4.352">2</tspan></text>
	<g>
		<line fill="none" stroke="#000000" stroke-width="0.1215" x1="331.447" y1="397.563" x2="316.41" y2="397.563"/>
		<g>
			<path d="M316.035,397.563c0,0,0.496-0.083,0.826-0.247c0.33-0.166,0.826-0.414,0.826-0.414v0.661"/>
			<path d="M316.035,397.563c0,0,0.496,0.083,0.826,0.248s0.826,0.413,0.826,0.413v-0.661"/>
		</g>
		<line fill="none" stroke="#000000" stroke-width="0.1215" x1="304.018" y1="397.563" x2="288.98" y2="397.563"/>
		<g>
			<path d="M288.605,397.563c0,0,0.496-0.083,0.826-0.247c0.331-0.166,0.826-0.414,0.826-0.414v0.661"/>
			<path d="M288.605,397.563c0,0,0.496,0.083,0.826,0.248c0.331,0.165,0.826,0.413,0.826,0.413v-0.661"/>
		</g>
		<text transform="matrix(1 0 0 1 295.8379 396.6387)" font-family="'GaramondPremrPro'" font-size="5.44">6</text>
		<text transform="matrix(1 0 0 1 321.6152 396.6387)" font-family="'GaramondPremrPro'" font-size="5.44">10</text>
		<g>
			<g>
				<path fill="none" stroke="#000000" stroke-width="0.1215" stroke-linecap="round" stroke-linejoin="round" d="M262.73,403.01
					c10.033,0,18.166-2.52,18.166-5.627s-8.133-5.625-18.166-5.625"/>
				<g>
					<path d="M262.73,403.01c1.692,0,3.026-2.525,3.026-5.578c0-3.05-1.334-5.674-3.026-5.674"/>
				</g>
			</g>
			<path stroke="#000000" stroke-width="0.1215" d="M271.447,397.845c1.756-0.111,3.51-0.223,6.436-0.297
				c2.929-0.075,4.68-0.111,4.68-0.111s-4.141-0.168-4.713-0.204c-0.584-0.037-4.127,0.056-6.533-0.205L271.447,397.845z"/>
		</g>
		<g>
			<g>
				<circle cx="309.486" cy="397.492" r="2.782"/>
				<path d="M309.486,397.492"/>
			</g>
			<path stroke="#FFFFFF" stroke-width="0.15" d="M312.275,397.279c-0.178-0.018-0.313-0.031-0.372-0.039
				c-0.284-0.039-1.999,0.057-3.163-0.211l0.062,0.843c0.85-0.114,1.699-0.229,3.116-0.307c0.122-0.007,0.241-0.013,0.355-0.019"/>
		</g>
		<g>
			<g>
				<path fill="none" stroke="#000000" stroke-width="0.1215" stroke-linecap="round" stroke-linejoin="round" d="M335.447,400.182
					c6.772,0,12.262-1.259,12.262-2.813c0-1.554-5.489-2.812-12.262-2.812"/>
				<g>
					<path d="M335.447,400.182c1.143,0,2.043-1.263,2.043-2.789c0-1.525-0.9-2.837-2.043-2.837"/>
				</g>
			</g>
			<path stroke="#000000" stroke-width="0.1215" d="M338.162,397.845c1.756-0.111,3.511-0.223,6.436-0.297
				c2.929-0.075,4.68-0.111,4.68-0.111s-4.14-0.168-4.713-0.204c-0.585-0.037-4.127,0.056-6.531-0.205L338.162,397.845z"/>
		</g>
	</g>
	<text transform="matrix(1 0 0 1 266.2881 408.8018)" font-family="'GaramondPremrPro'" font-size="5.44">“60” </text>
	<text transform="matrix(1 0 0 1 304.7607 408.8018)" font-family="'GaramondPremrPro'" font-size="5.44">“10”</text>
	<text transform="matrix(1 0 0 1 336.8164 408.8018)" font-family="'GaramondPremrPro'" font-size="5.44">“1”</text>
</g>
</svg>
